build (read-only)/BSA_tb.vcd
$date
	Thu Feb 22 19:28:56 2018
$end
$version
	Icarus Verilog
$end
$timescale
	1ns
$end
$scope module BSA_tb $end
$var wire 1 ! s $end
$var reg 1 " clk $end
$var reg 1 # rst $end
$var reg 1 $ x $end
$var reg 1 % y $end
$scope module uut $end
$var wire 1 " clk $end
$var wire 1 # rst $end
$var wire 1 $ x $end
$var wire 1 % y $end
$var wire 1 & z $end
$var wire 1 ' fs $end
$var wire 1 ( car1 $end
$var reg 1 ) car2 $end
$var reg 1 ! s $end
$scope module fa $end
$var wire 1 $ a $end
$var wire 1 & b $end
$var wire 1 ) c $end
$var wire 1 ( cout $end
$var wire 1 ' out $end
$upscope $end
$upscope $end
$upscope $end
$enddefinitions $end
#0
$dumpvars
0)
0(
0'
0&
0%
0$
0#
0"
0!
$end
#5
1#
1"
#10
0"
#15
1"
0#
#20
0"
#25
1"
1#
#30
0"
#35
1'
1"
1$
#40
0"
#45
1!
x'
x&
1"
1%
0$
#50
0"
#55
x!
x(
1"
1$
#60
0"
#65
x)
x'
x(
0&
1"
0%
#70
0"
#75
0(
1"
0$
#80
0"
#85
0'
0)
1"
#90
0"
#95
0!
1"
